%YAML 1.1
%TAG !u! tag:unity3d.com,2011:
--- !u!114 &-4584070737193092644
MonoBehaviour:
  m_ObjectHideFlags: 11
  m_CorrespondingSourceObject: {fileID: 0}
  m_PrefabInstance: {fileID: 0}
  m_PrefabAsset: {fileID: 0}
  m_GameObject: {fileID: 0}
  m_Enabled: 1
  m_EditorHideFlags: 0
  m_Script: {fileID: 11500000, guid: d0353a89b1f911e48b9e16bdc9f2e058, type: 3}
  m_Name: 
  m_EditorClassIdentifier: 
  version: 1
--- !u!21 &2100000
Material:
  serializedVersion: 6
  m_ObjectHideFlags: 0
  m_CorrespondingSourceObject: {fileID: 0}
  m_PrefabInstance: {fileID: 0}
  m_PrefabAsset: {fileID: 0}
  m_Name: Cube 1
  m_Shader: {fileID: 4800000, guid: 933532a4fcc9baf4fa0491de14d08ed7, type: 3}
  m_ShaderKeywords: _ALPHAPREMULTIPLY_ON _SPECULAR_SETUP
  m_LightmapFlags: 6
  m_EnableInstancingVariants: 0
  m_DoubleSidedGI: 0
  m_CustomRenderQueue: 3050
  stringTagMap:
    RenderType: Transparent
  disabledShaderPasses:
  - SHADOWCASTER
  m_SavedProperties:
    serializedVersion: 3
    m_TexEnvs:
    - _BaseMap:
        m_Texture: {fileID: 2800000, guid: c0c860b7d50c3417fa6ecc5cafd70644, type: 3}
        m_Scale: {x: 1, y: 1}
        m_Offset: {x: 0, y: 0}
    - _BumpMap:
        m_Texture: {fileID: 0}
        m_Scale: {x: 1, y: 1}
        m_Offset: {x: 0, y: 0}
    - _DetailAlbedoMap:
        m_Texture: {fileID: 0}
        m_Scale: {x: 1, y: 1}
        m_Offset: {x: 0, y: 0}
    - _DetailMask:
        m_Texture: {fileID: 0}
        m_Scale: {x: 1, y: 1}
        m_Offset: {x: 0, y: 0}
    - _DetailNormalMap:
        m_Texture: {fileID: 0}
        m_Scale: {x: 1, y: 1}
        m_Offset: {x: 0, y: 0}
    - _EmissionMap:
        m_Texture: {fileID: 0}
        m_Scale: {x: 1, y: 1}
        m_Offset: {x: 0, y: 0}
    - _MainTex:
        m_Texture: {fileID: 2800000, guid: c0c860b7d50c3417fa6ecc5cafd70644, type: 3}
        m_Scale: {x: 1, y: 1}
        m_Offset: {x: 0, y: 0}
    - _MetallicGlossMap:
        m_Texture: {fileID: 0}
        m_Scale: {x: 1, y: 1}
        m_Offset: {x: 0, y: 0}
    - _OcclusionMap:
        m_Texture: {fileID: 0}
        m_Scale: {x: 1, y: 1}
        m_Offset: {x: 0, y: 0}
    - _ParallaxMap:
        m_Texture: {fileID: 0}
        m_Scale: {x: 1, y: 1}
        m_Offset: {x: 0, y: 0}
    - _SpecGlossMap:
        m_Texture: {fileID: 0}
        m_Scale: {x: 1, y: 1}
        m_Offset: {x: 0, y: 0}
    m_Floats:
    - _AlphaClip: 0
    - _Blend: 1
    - _BlendOp: 0
    - _BumpScale: 1
    - _CameraFadingEnabled: 0
    - _CameraFarFadeDistance: 2
    - _CameraNearFadeDistance: 1
    - _ColorMode: 0
    - _Cull: 0
    - _Cutoff: 0.5
    - _DetailNormalMapScale: 1
    - _DistortionBlend: 0
    - _DistortionEnabled: 1
    - _DistortionStrength: 4.18
    - _DistortionStrengthScaled: 0.41799998
    - _DstBlend: 10
    - _EmissionEnabled: 0
    - _EnvironmentReflections: 1
    - _FlipbookBlending: 0
    - _FlipbookMode: 0
    - _GlossMapScale: 1
    - _Glossiness: 0.5
    - _GlossyReflections: 1
    - _LightingEnabled: 1
    - _Metallic: 0
    - _Mode: 3
    - _OcclusionStrength: 1
    - _Parallax: 0.02
    - _QueueOffset: 0
    - _ReceiveShadows: 1
    - _Smoothness: 0.5
    - _SmoothnessTextureChannel: 0
    - _SoftParticlesEnabled: 0
    - _SoftParticlesFarFadeDistance: 1
    - _SoftParticlesNearFadeDistance: 0
    - _SpecularHighlights: 1
    - _SrcBlend: 1
    - _Surface: 1
    - _UVSec: 0
    - _WorkflowMode: 0
    - _ZWrite: 0
    m_Colors:
    - _BaseColor: {r: 0.20496619, g: 0.6719706, b: 0.8867924, a: 0.1764706}
    - _BaseColorAddSubDiff: {r: 0, g: 0, b: 0, a: 0}
    - _CameraFadeParams: {r: 0, g: Infinity, b: 0, a: 0}
    - _Color: {r: 0.20496619, g: 0.6719706, b: 0.8867924, a: 0.1764706}
    - _EmissionColor: {r: 0, g: 0, b: 0, a: 1}
    - _SoftParticleFadeParams: {r: 0, g: 0, b: 0, a: 0}
    - _SpecColor: {r: 0.2, g: 0.2, b: 0.2, a: 1}
